{
  "project_info": {
    "project_number": "2639280973",
    "firebase_url": "https://sgas-15d99.firebaseio.com",
    "project_id": "sgas-15d99",
    "storage_bucket": "sgas-15d99.appspot.com"
  },
  "client": [
    {
      "client_info": {
        "mobilesdk_app_id": "1:2639280973:android:05c73679a66a203c",
        "android_client_info": {
          "package_name": "shantanu.testmap"
        }
      },
      "oauth_client": [
        {
          "client_id": "2639280973-a8cmgfrjlsedckf77n3afs67f44e827b.apps.googleusercontent.com",
          "client_type": 3
        }
      ],
      "api_key": [
        {
          "current_key": "AIzaSyBzSgyMr2wSNjHp8CsS7J_5ERcse4M-O_Q"
        }
      ],
      "services": {
        "analytics_service": {
          "status": 1
        },
        "appinvite_service": {
          "status": 1,
          "other_platform_oauth_client": []
        },
        "ads_service": {
          "status": 2
        }
      }
    }
  ],
  "configuration_version": "1"
}